MULTI_CYCLE/datapath.vcd
$date
	Mon Jul 13 18:29:07 2020
$end
$version
	Icarus Verilog
$end
$timescale
	1s
$end
$scope module tb_mips $end
$var reg 1 ! clk $end
$var reg 1 " reset $end
$scope module mips_DUT $end
$var wire 1 ! clk $end
$var wire 1 " reset $end
$var wire 1 # Zero $end
$var wire 1 $ RegWrite $end
$var wire 1 % RegDst $end
$var wire 1 & PCSource $end
$var wire 1 ' PCSel $end
$var wire 6 ( Op [5:0] $end
$var wire 1 ) MemtoReg $end
$var wire 1 * MemWrite $end
$var wire 1 + MemRead $end
$var wire 1 , IorD $end
$var wire 1 - IRWrite $end
$var wire 6 . Function [5:0] $end
$var wire 2 / ALUSrcB [1:0] $end
$var wire 1 0 ALUSrcA $end
$var wire 2 1 ALUOp [1:0] $end
$var wire 4 2 ALUCtrl [3:0] $end
$scope module alucontrol_D $end
$var wire 6 3 FnField [5:0] $end
$var wire 2 4 AluOp [1:0] $end
$var reg 4 5 AluCtrl [3:0] $end
$upscope $end
$scope module control_D $end
$var wire 1 ' PCSel $end
$var wire 1 ! clk $end
$var wire 1 " reset $end
$var wire 1 # Zero $end
$var wire 6 6 Op [5:0] $end
$var reg 2 7 ALUOp [1:0] $end
$var reg 1 0 ALUSrcA $end
$var reg 2 8 ALUSrcB [1:0] $end
$var reg 1 - IRWrite $end
$var reg 1 , IorD $end
$var reg 1 + MemRead $end
$var reg 1 * MemWrite $end
$var reg 1 ) MemtoReg $end
$var reg 1 & PCSource $end
$var reg 1 9 PCWrite $end
$var reg 1 : PCWriteCond $end
$var reg 1 % RegDst $end
$var reg 1 $ RegWrite $end
$var reg 4 ; nextstate [3:0] $end
$var reg 4 < state [3:0] $end
$upscope $end
$scope module datapath_D $end
$var wire 4 = ALUCtrl [3:0] $end
$var wire 1 0 ALUSrcA $end
$var wire 2 > ALUSrcB [1:0] $end
$var wire 1 - IRWrite $end
$var wire 1 , IorD $end
$var wire 1 + MemRead $end
$var wire 1 * MemWrite $end
$var wire 1 ) MemtoReg $end
$var wire 1 ' PCSel $end
$var wire 1 & PCSource $end
$var wire 1 % RegDst $end
$var wire 1 $ RegWrite $end
$var wire 1 ! clk $end
$var wire 1 " reset $end
$var wire 32 ? db [31:0] $end
$var wire 32 @ da [31:0] $end
$var wire 8 A address [7:0] $end
$var wire 1 # Zero $end
$var wire 32 B OpA [31:0] $end
$var wire 6 C Op [5:0] $end
$var wire 32 D MemData [31:0] $end
$var wire 6 E Function [5:0] $end
$var reg 32 F A [31:0] $end
$var reg 32 G ALUOut [31:0] $end
$var reg 32 H ALUResult [31:0] $end
$var reg 32 I B [31:0] $end
$var reg 32 J Instruction [31:0] $end
$var reg 32 K OpB [31:0] $end
$var reg 8 L PC [7:0] $end
$var reg 32 M mdr [31:0] $end
$upscope $end
$upscope $end
$upscope $end
$enddefinitions $end
#0
$dumpvars
bx M
bx L
bx K
bx J
bx I
bx H
bx G
bx F
bx E
bx D
bx C
bx B
bx A
bx @
bx ?
bx >
bx =
bx <
bx ;
x:
x9
bx 8
bx 7
bx 6
bx 5
bx 4
bx 3
bx 2
bx 1
x0
bx /
bx .
x-
x,
x+
x*
x)
bx (
x'
x&
x%
x$
x#
1"
0!
$end
#5
b100000000100000 D
0#
b10000001 H
b10000000 A
b10 2
b10 5
b10 =
1'
b10000000 B
b1 K
b0 1
b0 4
b0 7
0:
19
0%
0$
00
b1 /
b1 8
b1 >
0&
1-
0)
0*
1+
0,
b1 ;
b0 <
b10000000 L
1!
#10
0!
0"
#15
b0 @
b0 ?
b10000001 A
b100000010100001 H
0'
b100000000100000 K
bx D
b100000 .
b100000 3
b100000 E
b0 (
b0 6
b0 C
b10000001 B
09
b11 /
b11 8
b11 >
0-
0+
b110 ;
b10000001 G
b100000000100000 M
b100000000100000 J
b10000001 L
b1 <
1!
#20
0!
#25
1#
b0 H
b0 B
b0 K
b10 1
b10 4
b10 7
10
b0 /
b0 8
b0 >
b111 ;
b110 <
bx M
b0 F
b0 I
b100000010100001 G
1!
#30
0!
#35
0#
b10000001 H
b10000001 B
1$
1%
b0 1
b0 4
b0 7
00
b0 ;
b0 G
b111 <
1!
#40
0!
#45
b10000010 H
1'
b1 K
b111000000100000 D
19
b1 /
b1 8
b1 >
1-
1+
0%
0$
b1 ;
b0 <
b10000001 G
1!
#50
0!
#55
b10000010 A
b111000010100010 H
0'
b111000000100000 K
bx D
b10000010 B
09
b11 /
b11 8
b11 >
0-
0+
b110 ;
b10000010 G
b111000000100000 M
b111000000100000 J
b10000010 L
b1 <
1!
#60
0!
#65
1#
b0 H
b0 B
b0 K
b10 1
b10 4
b10 7
10
b0 /
b0 8
b0 >
b111 ;
b110 <
bx M
b111000010100010 G
1!
#70
0!
#75
0#
b10000010 H
b10000010 B
1$
1%
b0 1
b0 4
b0 7
00
b0 ;
b0 G
b111 <
1!
#80
0!
#85
b10000011 H
1'
b1 K
b10001101000010010000000001000000 D
19
b1 /
b1 8
b1 >
1-
1+
0%
0$
b1 ;
b0 <
b10000010 G
1!
#90
0!
#95
bx ?
b10000011 A
b11000011 H
0'
b1000000 K
bx D
b0 .
b0 3
b0 E
b100011 (
b100011 6
b100011 C
b10000011 B
09
b11 /
b11 8
b11 >
0-
0+
b10 ;
b10000011 G
b10001101000010010000000001000000 M
b10001101000010010000000001000000 J
b10000011 L
b1 <
1!
#100
0!
#105
b1000000 H
b0 B
10
b10 /
b10 8
b10 >
b11 ;
b10 <
bx M
bx I
b11000011 G
1!
#110
0!
#115
b1000000 A
x#
bx H
b10000 D
b10000011 B
bx K
1,
1+
00
b0 /
b0 8
b0 >
b100 ;
b1000000 G
b11 <
1!
#120
0!
#125
bx D
b10000011 A
1)
1$
0+
0,
b0 ;
b100 <
b10000 M
bx G
1!
#130
0!
#135
0#
b10000100 H
1'
b1 K
b10001101000010100000000001000100 D
b10000 ?
19
b1 /
b1 8
b1 >
1-
1+
0$
0)
b1 ;
bx M
b0 <
1!
#140
0!
#145
0'
bx D
b10000100 A
b11001000 H
bx ?
b1000100 K
09
b11 /
b11 8
b11 >
0-
0+
b10 ;
b10000100 B
b100 .
b100 3
b100 E
b1 <
b10000100 L
b10001101000010100000000001000100 J
b10001101000010100000000001000100 M
b10000 I
b10000100 G
1!
#150
0!
#155
b1000100 H
b0 B
10
b10 /
b10 8
b10 >
b11 ;
b11001000 G
bx I
bx M
b10 <
1!
#160
0!
#165
b1000100 A
x#
bx H
b1 D
b10000100 B
bx K
1,
1+
00
b0 /
b0 8
b0 >
b100 ;
b11 <
b1000100 G
1!
#170
0!
#175
b10000100 A
bx D
1)
1$
0+
0,
b0 ;
bx G
b1 M
b100 <
1!
#180
0!
#185
0#
b10000101 H
1'
b1 K
b10001101000010110000000001001000 D
19
b1 /
b1 8
b1 >
1-
1+
0$
0)
b1 ;
b1 ?
b0 <
bx M
1!
#190
0!
#195
bx ?
b10000101 A
b11001101 H
0'
bx D
b1001000 K
b1000 .
b1000 3
b1000 E
b10000101 B
09
b11 /
b11 8
b11 >
0-
0+
b10 ;
b10000101 G
b1 I
b10001101000010110000000001001000 M
b10001101000010110000000001001000 J
b10000101 L
b1 <
1!
#200
0!
#205
b1001000 H
b0 B
10
b10 /
b10 8
b10 >
b11 ;
b10 <
bx M
bx I
b11001101 G
1!
#210
0!
#215
b1001000 A
x#
bx H
b1 D
b10000101 B
bx K
1,
1+
00
b0 /
b0 8
b0 >
b100 ;
b1001000 G
b11 <
1!
#220
0!
#225
bx D
b10000101 A
1)
1$
0+
0,
b0 ;
b100 <
b1 M
bx G
1!
#230
0!
#235
0#
b10000110 H
1'
b1 K
b10101101000000000000000001001100 D
b1 ?
19
b1 /
b1 8
b1 >
1-
1+
0$
0)
b1 ;
bx M
b0 <
1!
#240
0!
#245
0'
bx D
b10000110 A
b11010010 H
b0 ?
b1001100 K
09
b11 /
b11 8
b11 >
0-
0+
b10 ;
b10000110 B
b1100 .
b1100 3
b1100 E
b101011 (
b101011 6
b101011 C
b1 <
b10000110 L
b10101101000000000000000001001100 J
b10101101000000000000000001001100 M
b1 I
b10000110 G
1!
#250
0!
#255
b1001100 H
b0 B
10
b10 /
b10 8
b10 >
b101 ;
b11010010 G
b0 I
bx M
b10 <
1!
#260
0!
#265
b1001100 A
b10000110 H
b10000110 B
b0 K
1,
1*
00
b0 /
b0 8
b0 >
b0 ;
b101 <
b1001100 G
1!
#270
0!
#275
b10000111 H
b10000110 A
1'
b1 K
b10001101000011000000000000000000 D
19
b1 /
b1 8
b1 >
1-
1+
0*
0,
b1 ;
b10000110 G
b0 <
1!
#280
0!
#285
0'
bx D
b10000111 A
bx ?
b0 K
09
b11 /
b11 8
b11 >
0-
0+
b10 ;
b10000111 B
b0 .
b0 3
b0 E
b100011 (
b100011 6
b100011 C
b1 <
b10000111 L
b10001101000011000000000000000000 J
b10001101000011000000000000000000 M
b10000111 G
1!
#290
0!
#295
1#
b0 H
b0 B
10
b10 /
b10 8
b10 >
b11 ;
bx I
bx M
b10 <
1!
#300
0!
#305
b0 A
x#
bx H
b1 D
b10000111 B
bx K
1,
1+
00
b0 /
b0 8
b0 >
b100 ;
b11 <
b0 G
1!
#310
0!
#315
b10000111 A
bx D
1)
1$
0+
0,
b0 ;
bx G
b1 M
b100 <
1!
#320
0!
#325
0#
b10001000 H
1'
b1 K
b10001101110011010000000001001100 D
19
b1 /
b1 8
b1 >
1-
1+
0$
0)
b1 ;
b1 ?
b0 <
bx M
1!
#330
0!
#335
bx ?
b10001000 A
b11010100 H
0'
bx D
b1001100 K
b1100 .
b1100 3
b1100 E
b10001000 B
09
b11 /
b11 8
b11 >
0-
0+
b10 ;
b10001000 G
b1 I
b10001101110011010000000001001100 M
b10001101110011010000000001001100 J
b10001000 L
b1 <
1!
#340
0!
#345
b1001100 H
b0 B
10
b10 /
b10 8
b10 >
b11 ;
b10 <
bx M
bx I
b11010100 G
1!
#350
0!
#355
b1001100 A
x#
bx H
b0 D
b10001000 B
bx K
1,
1+
00
b0 /
b0 8
b0 >
b100 ;
b1001100 G
b11 <
1!
#360
0!
#365
bx D
b10001000 A
1)
1$
0+
0,
b0 ;
b100 <
b0 M
bx G
1!
#370
0!
#375
0#
b10001001 H
1'
b1 K
b1101011000110100000100000 D
b0 ?
19
b1 /
b1 8
b1 >
1-
1+
0$
0)
b1 ;
bx M
b0 <
1!
#380
0!
#385
0'
bx D
b10001001 A
b110100010101001 H
b1 ?
b110100000100000 K
09
b11 /
b11 8
b11 >
0-
0+
b110 ;
b10001001 B
b100000 .
b100000 3
b100000 E
b0 (
b0 6
b0 C
b1 <
b10001001 L
b1101011000110100000100000 J
b1101011000110100000100000 M
b0 I
b10001001 G
1!
#390
0!
#395
b1 H
b0 B
b1 K
b10 1
b10 4
b10 7
10
b0 /
b0 8
b0 >
b111 ;
b110100010101001 G
b1 I
bx M
b110 <
1!
#400
0!
#405
b10001010 H
b10001001 B
1$
1%
b0 1
b0 4
b0 7
00
b0 ;
b111 <
b1 G
1!
#410
0!
#415
1'
b10101101110011010000000001001100 D
b1 @
19
b1 /
b1 8
b1 >
1-
1+
0%
0$
b1 ;
b10001010 G
b0 <
1!
#420
0!
#425
0'
bx D
b10001010 A
b11010110 H
b0 @
b1001100 K
09
b11 /
b11 8
b11 >
0-
0+
b10 ;
b10001010 B
b1100 .
b1100 3
b1100 E
b101011 (
b101011 6
b101011 C
b1 <
b10001010 L
b10101101110011010000000001001100 J
b10101101110011010000000001001100 M
b1 F
1!
#430
0!
#435
b1001100 H
b0 B
10
b10 /
b10 8
b10 >
b101 ;
b11010110 G
b0 F
bx M
b10 <
1!
#440
0!
#445
b1001100 A
b10001011 H
b10001010 B
b1 K
1,
1*
00
b0 /
b0 8
b0 >
b0 ;
b101 <
b1001100 G
1!
#450
0!
#455
b10001010 A
1'
b1001010100100100000100010 D
19
b1 /
b1 8
b1 >
1-
1+
0*
0,
b1 ;
b10001011 G
b0 <
1!
#460
0!
#465
0'
bx D
b10001011 A
b100100010101101 H
b10000 @
b100100000100010 K
09
b11 /
b11 8
b11 >
0-
0+
b110 ;
b10001011 B
b100010 .
b100010 3
b100010 E
b0 (
b0 6
b0 C
b1 <
b10001011 L
b1001010100100100000100010 J
b1001010100100100000100010 M
1!
#470
0!
#475
b1111 H
b110 2
b110 5
b110 =
b10000 B
b1 K
b10 1
b10 4
b10 7
10
b0 /
b0 8
b0 >
b111 ;
b100100010101101 G
b10000 F
bx M
b110 <
1!
#480
0!
#485
b10001100 H
b10 2
b10 5
b10 =
b10001011 B
1$
1%
b0 1
b0 4
b0 7
00
b0 ;
b111 <
b1111 G
1!
#490
0!
#495
1'
b1000010110100000000100000 D
b1111 @
19
b1 /
b1 8
b1 >
1-
1+
0%
0$
b1 ;
b10001100 G
b0 <
1!
#500
0!
#505
0'
bx D
b10001100 A
b100000010101100 H
b0 @
b100000000100000 K
09
b11 /
b11 8
b11 >
0-
0+
b110 ;
b10001100 B
b100000 .
b100000 3
b100000 E
b1 <
b10001100 L
b1000010110100000000100000 J
b1000010110100000000100000 M
b1111 F
1!
#510
0!
#515
b1 H
b0 B
b1 K
b10 1
b10 4
b10 7
10
b0 /
b0 8
b0 >
b111 ;
b100000010101100 G
b0 F
bx M
b110 <
1!
#520
0!
#525
b10001101 H
b10001100 B
1$
1%
b0 1
b0 4
b0 7
00
b0 ;
b111 <
b1 G
1!
#530
0!
#535
1'
b10001001000000000000000000001 D
b1 @
19
b1 /
b1 8
b1 >
1-
1+
0%
0$
b1 ;
b10001101 G
b0 <
1!
#540
0!
#545
0'
bx D
b10001101 A
b10001110 H
b1111 @
b0 ?
09
b11 /
b11 8
b11 >
0-
0+
b1000 ;
b10001101 B
b1 .
b1 3
b1 E
b100 (
b100 6
b100 C
b1 <
b10001101 L
b10001001000000000000000000001 J
b10001001000000000000000000001 M
b1 F
1!
#550
0!
#555
b1111 H
b110 2
b110 5
b110 =
b1111 B
b0 K
1&
1:
b1 1
b1 4
b1 7
10
b0 /
b0 8
b0 >
b0 ;
b10001110 G
b0 I
b1111 F
bx M
b1000 <
1!
#560
0!
#565
b10001110 H
1'
b1 K
b10001001010011111111111111000 D
b10 2
b10 5
b10 =
b10001101 B
19
b1 /
b1 8
b1 >
1-
1+
b0 1
b0 4
b0 7
0:
00
0&
b1 ;
b0 <
b1111 G
1!
#570
0!
#575
b1111 ?
b10001110 A
b10000110 H
0'
b11111111111111111111111111111000 K
bx D
b111000 .
b111000 3
b111000 E
b10001110 B
09
b11 /
b11 8
b11 >
0-
0+
b1000 ;
b10001110 G
b10001001010011111111111111000 M
b10001001010011111111111111000 J
b10001110 L
b1 <
1!
#580
0!
#585
1'
1#
b0 H
b110 2
b110 5
b110 =
b1111 B
b1111 K
1&
1:
b1 1
b1 4
b1 7
10
b0 /
b0 8
b0 >
b0 ;
b1000 <
bx M
b1111 I
b10000110 G
1!
#590
0!
#595
b10001101000011000000000000000000 D
0#
b10000111 H
b10000110 A
b1 K
b10 2
b10 5
b10 =
b10000110 B
19
b1 /
b1 8
b1 >
1-
1+
b0 1
b0 4
b0 7
0:
00
0&
b1 ;
b0 G
b10000110 L
b0 <
1!
#600
0!
#605
0'
bx D
b10000111 A
b1 @
b1 ?
b0 K
09
b11 /
b11 8
b11 >
0-
0+
b10 ;
b10000111 B
b0 .
b0 3
b0 E
b100011 (
b100011 6
b100011 C
b1 <
b10000111 L
b10001101000011000000000000000000 J
b10001101000011000000000000000000 M
b10000111 G
1!
#610
0!
#615
b1 H
b1 B
10
b10 /
b10 8
b10 >
b11 ;
b1 I
b1 F
bx M
b10 <
1!
#620
0!
#625
b1 A
b10001000 H
b0 D
b10000111 B
b1 K
1,
1+
00
b0 /
b0 8
b0 >
b100 ;
b11 <
b1 G
1!
#630
0!
#635
b10000111 A
bx D
1)
1$
0+
0,
b0 ;
b10001000 G
b0 M
b100 <
1!
#640
0!
#645
1'
b10001101110011010000000001001100 D
19
b1 /
b1 8
b1 >
1-
1+
0$
0)
b1 ;
b0 ?
b0 <
bx M
1!
#650
0!
#655
b0 @
b1 ?
b10001000 A
b11010100 H
0'
bx D
b1001100 K
b1100 .
b1100 3
b1100 E
b10001000 B
09
b11 /
b11 8
b11 >
0-
0+
b10 ;
b0 I
b10001101110011010000000001001100 M
b10001101110011010000000001001100 J
b10001000 L
b1 <
1!
#660
0!
#665
b1001100 H
b0 B
10
b10 /
b10 8
b10 >
b11 ;
b10 <
bx M
b0 F
b1 I
b11010100 G
1!
#670
0!
#675
b1001100 A
b10001001 H
b1 D
b10001000 B
b1 K
1,
1+
00
b0 /
b0 8
b0 >
b100 ;
b1001100 G
b11 <
1!
#680
0!
#685
bx D
b10001000 A
1)
1$
0+
0,
b0 ;
b100 <
b1 M
b10001001 G
1!
#690
0!
#695
1'
b1101011000110100000100000 D
19
b1 /
b1 8
b1 >
1-
1+
0$
0)
b1 ;
bx M
b0 <
1!
#700
0!
#705
0'
bx D
b10001001 A
b110100010101001 H
b1 @
b0 ?
b110100000100000 K
09
b11 /
b11 8
b11 >
0-
0+
b110 ;
b10001001 B
b100000 .
b100000 3
b100000 E
b0 (
b0 6
b0 C
b1 <
b10001001 L
b1101011000110100000100000 J
b1101011000110100000100000 M
1!
#710
0!
#715
b1 H
b1 B
b0 K
b10 1
b10 4
b10 7
10
b0 /
b0 8
b0 >
b111 ;
b110100010101001 G
b0 I
b1 F
bx M
b110 <
1!
#720
0!
#725
b10001001 H
b10001001 B
1$
1%
b0 1
b0 4
b0 7
00
b0 ;
b111 <
b1 G
1!
#730
0!
#735
b10001010 H
1'
b1 K
b10101101110011010000000001001100 D
19
b1 /
b1 8
b1 >
1-
1+
0%
0$
b1 ;
b10001001 G
b0 <
1!
#740
0!
#745
0'
bx D
b10001010 A
b11010110 H
b0 @
b1 ?
b1001100 K
09
b11 /
b11 8
b11 >
0-
0+
b10 ;
b10001010 B
b1100 .
b1100 3
b1100 E
b101011 (
b101011 6
b101011 C
b1 <
b10001010 L
b10101101110011010000000001001100 J
b10101101110011010000000001001100 M
b10001010 G
1!
#750
0!
#755
b1001100 H
b0 B
10
b10 /
b10 8
b10 >
b101 ;
b11010110 G
b1 I
b0 F
bx M
b10 <
1!
#760
0!
#765
b1001100 A
b10001011 H
b10001010 B
b1 K
1,
1*
00
b0 /
b0 8
b0 >
b0 ;
b101 <
b1001100 G
1!
#770
0!
#775
b10001010 A
1'
b1001010100100100000100010 D
19
b1 /
b1 8
b1 >
1-
1+
0*
0,
b1 ;
b10001011 G
b0 <
1!
#780
0!
#785
0'
bx D
b10001011 A
b100100010101101 H
b1111 @
b100100000100010 K
09
b11 /
b11 8
b11 >
0-
0+
b110 ;
b10001011 B
b100010 .
b100010 3
b100010 E
b0 (
b0 6
b0 C
b1 <
b10001011 L
b1001010100100100000100010 J
b1001010100100100000100010 M
1!
#790
0!
#795
b1110 H
b110 2
b110 5
b110 =
b1111 B
b1 K
b10 1
b10 4
b10 7
10
b0 /
b0 8
b0 >
b111 ;
b100100010101101 G
b1111 F
bx M
b110 <
1!
#800
0!
#805
b10001100 H
b10 2
b10 5
b10 =
b10001011 B
1$
1%
b0 1
b0 4
b0 7
00
b0 ;
b111 <
b1110 G
1!
#810
0!
#815
1'
b1000010110100000000100000 D
b1110 @
19
b1 /
b1 8
b1 >
1-
1+
0%
0$
b1 ;
b10001100 G
b0 <
1!
#820
0!
#825
0'
bx D
b10001100 A
b100000010101100 H
b1 @
b100000000100000 K
09
b11 /
b11 8
b11 >
0-
0+
b110 ;
b10001100 B
b100000 .
b100000 3
b100000 E
b1 <
b10001100 L
b1000010110100000000100000 J
b1000010110100000000100000 M
b1110 F
1!
#830
0!
#835
b10 H
b1 B
b1 K
b10 1
b10 4
b10 7
10
b0 /
b0 8
b0 >
b111 ;
b100000010101100 G
b1 F
bx M
b110 <
1!
#840
0!
#845
b10001101 H
b10001100 B
1$
1%
b0 1
b0 4
b0 7
00
b0 ;
b111 <
b10 G
1!
#850
0!
#855
1'
b10001001000000000000000000001 D
b10 @
19
b1 /
b1 8
b1 >
1-
1+
0%
0$
b1 ;
b10001101 G
b0 <
1!
#860
0!
#865
0'
bx D
b10001101 A
b10001110 H
b1110 @
b0 ?
09
b11 /
b11 8
b11 >
0-
0+
b1000 ;
b10001101 B
b1 .
b1 3
b1 E
b100 (
b100 6
b100 C
b1 <
b10001101 L
b10001001000000000000000000001 J
b10001001000000000000000000001 M
b10 F
1!
#870
0!
#875
b1110 H
b110 2
b110 5
b110 =
b1110 B
b0 K
1&
1:
b1 1
b1 4
b1 7
10
b0 /
b0 8
b0 >
b0 ;
b10001110 G
b0 I
b1110 F
bx M
b1000 <
1!
#880
0!
#885
b10001110 H
1'
b1 K
b10001001010011111111111111000 D
b10 2
b10 5
b10 =
b10001101 B
19
b1 /
b1 8
b1 >
1-
1+
b0 1
b0 4
b0 7
0:
00
0&
b1 ;
b0 <
b1110 G
1!
#890
0!
#895
b1110 ?
b10001110 A
b10000110 H
0'
b11111111111111111111111111111000 K
bx D
b111000 .
b111000 3
b111000 E
b10001110 B
09
b11 /
b11 8
b11 >
0-
0+
b1000 ;
b10001110 G
b10001001010011111111111111000 M
b10001001010011111111111111000 J
b10001110 L
b1 <
1!
#900
0!
#905
1'
1#
b0 H
b110 2
b110 5
b110 =
b1110 B
b1110 K
1&
1:
b1 1
b1 4
b1 7
10
b0 /
b0 8
b0 >
b0 ;
b1000 <
bx M
b1110 I
b10000110 G
1!
#910
0!
#915
b10001101000011000000000000000000 D
0#
b10000111 H
b10000110 A
b1 K
b10 2
b10 5
b10 =
b10000110 B
19
b1 /
b1 8
b1 >
1-
1+
b0 1
b0 4
b0 7
0:
00
0&
b1 ;
b0 G
b10000110 L
b0 <
1!
#920
0!
#925
0'
bx D
b10000111 A
b10 @
b0 ?
b0 K
09
b11 /
b11 8
b11 >
0-
0+
b10 ;
b10000111 B
b0 .
b0 3
b0 E
b100011 (
b100011 6
b100011 C
b1 <
b10000111 L
b10001101000011000000000000000000 J
b10001101000011000000000000000000 M
b10000111 G
1!
#930
0!
#935
b10 H
b10 B
10
b10 /
b10 8
b10 >
b11 ;
b0 I
b10 F
bx M
b10 <
1!
#940
0!
#945
b10 A
b10000111 H
b0 D
b10000111 B
1,
1+
00
b0 /
b0 8
b0 >
b100 ;
b11 <
b10 G
1!
#950
0!
#955
b10000111 A
bx D
1)
1$
0+
0,
b0 ;
b10000111 G
b0 M
b100 <
1!
#960
0!
#965
b10001000 H
1'
b1 K
b10001101110011010000000001001100 D
19
b1 /
b1 8
b1 >
1-
1+
0$
0)
b1 ;
b0 <
bx M
1!
#970
0!
#975
b0 @
b1 ?
b10001000 A
b11010100 H
0'
b1001100 K
bx D
b1100 .
b1100 3
b1100 E
b10001000 B
09
b11 /
b11 8
b11 >
0-
0+
b10 ;
b10001000 G
b10001101110011010000000001001100 M
b10001101110011010000000001001100 J
b10001000 L
b1 <
1!
#980
0!
#985
b1001100 H
b0 B
10
b10 /
b10 8
b10 >
b11 ;
b10 <
bx M
b0 F
b1 I
b11010100 G
1!
#990
0!
#995
b1001100 A
b10001001 H
b1 D
b10001000 B
b1 K
1,
1+
00
b0 /
b0 8
b0 >
b100 ;
b1001100 G
b11 <
1!
#1000
0!
#1005
bx D
b10001000 A
1)
1$
0+
0,
b0 ;
b100 <
b1 M
b10001001 G
1!
#1010
0!
#1015
1'
b1101011000110100000100000 D
19
b1 /
b1 8
b1 >
1-
1+
0$
0)
b1 ;
bx M
b0 <
1!
#1020
0!
#1025
0'
bx D
b10001001 A
b110100010101001 H
b1 @
b0 ?
b110100000100000 K
09
b11 /
b11 8
b11 >
0-
0+
b110 ;
b10001001 B
b100000 .
b100000 3
b100000 E
b0 (
b0 6
b0 C
b1 <
b10001001 L
b1101011000110100000100000 J
b1101011000110100000100000 M
1!
#1030
0!
#1035
b1 H
b1 B
b0 K
b10 1
b10 4
b10 7
10
b0 /
b0 8
b0 >
b111 ;
b110100010101001 G
b0 I
b1 F
bx M
b110 <
1!
#1040
0!
#1045
b10001001 H
b10001001 B
1$
1%
b0 1
b0 4
b0 7
00
b0 ;
b111 <
b1 G
1!
#1050
0!
#1055
b10001010 H
1'
b1 K
b10101101110011010000000001001100 D
19
b1 /
b1 8
b1 >
1-
1+
0%
0$
b1 ;
b10001001 G
b0 <
1!
#1060
0!
#1065
0'
bx D
b10001010 A
b11010110 H
b0 @
b1 ?
b1001100 K
09
b11 /
b11 8
b11 >
0-
0+
b10 ;
b10001010 B
b1100 .
b1100 3
b1100 E
b101011 (
b101011 6
b101011 C
b1 <
b10001010 L
b10101101110011010000000001001100 J
b10101101110011010000000001001100 M
b10001010 G
1!
#1070
0!
#1075
b1001100 H
b0 B
10
b10 /
b10 8
b10 >
b101 ;
b11010110 G
b1 I
b0 F
bx M
b10 <
1!
#1080
0!
#1085
b1001100 A
b10001011 H
b10001010 B
b1 K
1,
1*
00
b0 /
b0 8
b0 >
b0 ;
b101 <
b1001100 G
1!
#1090
0!
#1095
b10001010 A
1'
b1001010100100100000100010 D
19
b1 /
b1 8
b1 >
1-
1+
0*
0,
b1 ;
b10001011 G
b0 <
1!
#1100
0!
#1105
0'
bx D
b10001011 A
b100100010101101 H
b1110 @
b100100000100010 K
09
b11 /
b11 8
b11 >
0-
0+
b110 ;
b10001011 B
b100010 .
b100010 3
b100010 E
b0 (
b0 6
b0 C
b1 <
b10001011 L
b1001010100100100000100010 J
b1001010100100100000100010 M
1!
#1110
0!
#1115
b1101 H
b110 2
b110 5
b110 =
b1110 B
b1 K
b10 1
b10 4
b10 7
10
b0 /
b0 8
b0 >
b111 ;
b100100010101101 G
b1110 F
bx M
b110 <
1!
#1120
0!
#1125
b10001100 H
b10 2
b10 5
b10 =
b10001011 B
1$
1%
b0 1
b0 4
b0 7
00
b0 ;
b111 <
b1101 G
1!
#1130
0!
#1135
1'
b1000010110100000000100000 D
b1101 @
19
b1 /
b1 8
b1 >
1-
1+
0%
0$
b1 ;
b10001100 G
b0 <
1!
#1140
0!
#1145
0'
bx D
b10001100 A
b100000010101100 H
b10 @
b100000000100000 K
09
b11 /
b11 8
b11 >
0-
0+
b110 ;
b10001100 B
b100000 .
b100000 3
b100000 E
b1 <
b10001100 L
b1000010110100000000100000 J
b1000010110100000000100000 M
b1101 F
1!
#1150
0!
#1155
b11 H
b10 B
b1 K
b10 1
b10 4
b10 7
10
b0 /
b0 8
b0 >
b111 ;
b100000010101100 G
b10 F
bx M
b110 <
1!
#1160
0!
#1165
b10001101 H
b10001100 B
1$
1%
b0 1
b0 4
b0 7
00
b0 ;
b111 <
b11 G
1!
#1170
0!
#1175
1'
b10001001000000000000000000001 D
b11 @
19
b1 /
b1 8
b1 >
1-
1+
0%
0$
b1 ;
b10001101 G
b0 <
1!
#1180
0!
#1185
0'
bx D
b10001101 A
b10001110 H
b1101 @
b0 ?
09
b11 /
b11 8
b11 >
0-
0+
b1000 ;
b10001101 B
b1 .
b1 3
b1 E
b100 (
b100 6
b100 C
b1 <
b10001101 L
b10001001000000000000000000001 J
b10001001000000000000000000001 M
b11 F
1!
#1190
0!
#1195
b1101 H
b110 2
b110 5
b110 =
b1101 B
b0 K
1&
1:
b1 1
b1 4
b1 7
10
b0 /
b0 8
b0 >
b0 ;
b10001110 G
b0 I
b1101 F
bx M
b1000 <
1!
#1200
0!
#1205
b10001110 H
1'
b1 K
b10001001010011111111111111000 D
b10 2
b10 5
b10 =
b10001101 B
19
b1 /
b1 8
b1 >
1-
1+
b0 1
b0 4
b0 7
0:
00
0&
b1 ;
b0 <
b1101 G
1!
#1210
0!
#1215
b1101 ?
b10001110 A
b10000110 H
0'
b11111111111111111111111111111000 K
bx D
b111000 .
b111000 3
b111000 E
b10001110 B
09
b11 /
b11 8
b11 >
0-
0+
b1000 ;
b10001110 G
b10001001010011111111111111000 M
b10001001010011111111111111000 J
b10001110 L
b1 <
1!
#1220
0!
#1225
1'
1#
b0 H
b110 2
b110 5
b110 =
b1101 B
b1101 K
1&
1:
b1 1
b1 4
b1 7
10
b0 /
b0 8
b0 >
b0 ;
b1000 <
bx M
b1101 I
b10000110 G
1!
#1230
0!
#1235
b10001101000011000000000000000000 D
0#
b10000111 H
b10000110 A
b1 K
b10 2
b10 5
b10 =
b10000110 B
19
b1 /
b1 8
b1 >
1-
1+
b0 1
b0 4
b0 7
0:
00
0&
b1 ;
b0 G
b10000110 L
b0 <
1!
#1240
0!
#1245
0'
bx D
b10000111 A
b11 @
b0 ?
b0 K
09
b11 /
b11 8
b11 >
0-
0+
b10 ;
b10000111 B
b0 .
b0 3
b0 E
b100011 (
b100011 6
b100011 C
b1 <
b10000111 L
b10001101000011000000000000000000 J
b10001101000011000000000000000000 M
b10000111 G
1!
#1250
0!
#1255
b11 H
b11 B
10
b10 /
b10 8
b10 >
b11 ;
b0 I
b11 F
bx M
b10 <
1!
#1260
0!
#1265
b11 A
b10000111 H
b0 D
b10000111 B
1,
1+
00
b0 /
b0 8
b0 >
b100 ;
b11 <
b11 G
1!
#1270
0!
#1275
b10000111 A
bx D
1)
1$
0+
0,
b0 ;
b10000111 G
b0 M
b100 <
1!
#1280
0!
#1285
b10001000 H
1'
b1 K
b10001101110011010000000001001100 D
19
b1 /
b1 8
b1 >
1-
1+
0$
0)
b1 ;
b0 <
bx M
1!
#1290
0!
#1295
b0 @
b1 ?
b10001000 A
b11010100 H
0'
b1001100 K
bx D
b1100 .
b1100 3
b1100 E
b10001000 B
09
b11 /
b11 8
b11 >
0-
0+
b10 ;
b10001000 G
b10001101110011010000000001001100 M
b10001101110011010000000001001100 J
b10001000 L
b1 <
1!
#1300
0!
