mips.vcd
$date
	Thu Jul  2 14:51:07 2020
$end
$version
	Icarus Verilog
$end
$timescale
	1s
$end
$scope module testbench $end
$var wire 32 ! writedata [31:0] $end
$var wire 1 " memwrite $end
$var wire 32 # dataadr [31:0] $end
$var reg 1 $ clk $end
$var reg 1 % reset $end
$scope module dut $end
$var wire 1 $ clk $end
$var wire 1 % reset $end
$var wire 32 & writedata [31:0] $end
$var wire 32 ' readdata [31:0] $end
$var wire 32 ( pc [31:0] $end
$var wire 1 " memwrite $end
$var wire 32 ) instr [31:0] $end
$var wire 32 * dataadr [31:0] $end
$scope module dmem $end
$var wire 1 $ clk $end
$var wire 32 + rd [31:0] $end
$var wire 1 " we $end
$var wire 32 , wd [31:0] $end
$var wire 32 - a [31:0] $end
$upscope $end
$scope module imem $end
$var wire 6 . a [5:0] $end
$var wire 32 / rd [31:0] $end
$upscope $end
$scope module mips $end
$var wire 1 $ clk $end
$var wire 32 0 instr [31:0] $end
$var wire 32 1 readdata [31:0] $end
$var wire 1 % reset $end
$var wire 1 2 zero $end
$var wire 32 3 writedata [31:0] $end
$var wire 1 4 regwrite $end
$var wire 1 5 regdst $end
$var wire 1 6 pcsrc $end
$var wire 32 7 pc [31:0] $end
$var wire 1 " memwrite $end
$var wire 1 8 memtoreg $end
$var wire 1 9 jump $end
$var wire 1 : alusrc $end
$var wire 32 ; aluout [31:0] $end
$var wire 3 < alucontrol [2:0] $end
$scope module c $end
$var wire 6 = funct [5:0] $end
$var wire 6 > op [5:0] $end
$var wire 1 6 pcsrc $end
$var wire 1 2 zero $end
$var wire 1 4 regwrite $end
$var wire 1 5 regdst $end
$var wire 1 " memwrite $end
$var wire 1 8 memtoreg $end
$var wire 1 9 jump $end
$var wire 1 ? branch $end
$var wire 1 : alusrc $end
$var wire 2 @ aluop [1:0] $end
$var wire 3 A alucontrol [2:0] $end
$scope module ad $end
$var wire 6 B funct [5:0] $end
$var wire 2 C aluop [1:0] $end
$var reg 3 D alucontrol [2:0] $end
$upscope $end
$scope module md $end
$var wire 6 E op [5:0] $end
$var wire 1 4 regwrite $end
$var wire 1 5 regdst $end
$var wire 1 " memwrite $end
$var wire 1 8 memtoreg $end
$var wire 1 9 jump $end
$var wire 1 ? branch $end
$var wire 1 : alusrc $end
$var wire 2 F aluop [1:0] $end
$var reg 9 G controls [8:0] $end
$upscope $end
$upscope $end
$scope module dp $end
$var wire 3 H alucontrol [2:0] $end
$var wire 1 : alusrc $end
$var wire 1 $ clk $end
$var wire 32 I instr [31:0] $end
$var wire 1 9 jump $end
$var wire 1 8 memtoreg $end
$var wire 1 6 pcsrc $end
$var wire 32 J readdata [31:0] $end
$var wire 1 5 regdst $end
$var wire 1 4 regwrite $end
$var wire 1 % reset $end
$var wire 1 2 zero $end
$var wire 5 K writereg [4:0] $end
$var wire 32 L writedata [31:0] $end
$var wire 32 M srcb [31:0] $end
$var wire 32 N srca [31:0] $end
$var wire 32 O signimmsh [31:0] $end
$var wire 32 P signimm [31:0] $end
$var wire 32 Q result [31:0] $end
$var wire 32 R pcplus4 [31:0] $end
$var wire 32 S pcnextbr [31:0] $end
$var wire 32 T pcnext [31:0] $end
$var wire 32 U pcbranch [31:0] $end
$var wire 32 V pc [31:0] $end
$var wire 32 W aluout [31:0] $end
$scope module alu $end
$var wire 3 X AluOp [2:0] $end
$var wire 1 Y zeroL $end
$var wire 1 Z zeroA $end
$var wire 1 2 zero $end
$var wire 32 [ logic_result [31:0] $end
$var wire 32 \ arith_result [31:0] $end
$var wire 32 ] Result [31:0] $end
$var wire 32 ^ B [31:0] $end
$var wire 32 _ A [31:0] $end
$scope module Logic $end
$var wire 3 ` AluOp [2:0] $end
$var wire 32 a B [31:0] $end
$var wire 32 b A [31:0] $end
$var reg 32 c Result [31:0] $end
$var reg 1 Y zero $end
$upscope $end
$scope module arith $end
$var wire 3 d AluOp [2:0] $end
$var wire 32 e B [31:0] $end
$var wire 32 f A [31:0] $end
$var reg 32 g Result [31:0] $end
$var reg 1 Z zero $end
$upscope $end
$upscope $end
$scope module immsh $end
$var wire 32 h y [31:0] $end
$var wire 32 i a [31:0] $end
$upscope $end
$scope module pcadd1 $end
$var wire 32 j b [31:0] $end
$var wire 32 k y [31:0] $end
$var wire 32 l a [31:0] $end
$upscope $end
$scope module pcadd2 $end
$var wire 32 m a [31:0] $end
$var wire 32 n b [31:0] $end
$var wire 32 o y [31:0] $end
$upscope $end
$scope module pcbrmux $end
$var wire 32 p A [31:0] $end
$var wire 32 q B [31:0] $end
$var wire 1 6 selector $end
$var wire 32 r result [31:0] $end
$upscope $end
$scope module pcmux $end
$var wire 32 s A [31:0] $end
$var wire 32 t B [31:0] $end
$var wire 1 9 selector $end
$var wire 32 u result [31:0] $end
$upscope $end
$scope module pcreg $end
$var wire 1 $ clk $end
$var wire 32 v d [31:0] $end
$var wire 1 % reset $end
$var reg 32 w q [31:0] $end
$upscope $end
$scope module resmux $end
$var wire 32 x A [31:0] $end
$var wire 32 y B [31:0] $end
$var wire 1 8 selector $end
$var wire 32 z result [31:0] $end
$upscope $end
$scope module rf $end
$var wire 1 $ clk $end
$var wire 5 { ra1 [4:0] $end
$var wire 5 | ra2 [4:0] $end
$var wire 32 } wd3 [31:0] $end
$var wire 1 4 we3 $end
$var wire 5 ~ wa3 [4:0] $end
$var wire 32 !" rd2 [31:0] $end
$var wire 32 "" rd1 [31:0] $end
$upscope $end
$scope module se $end
$var wire 16 #" a [15:0] $end
$var wire 32 $" y [31:0] $end
$upscope $end
$scope module srcbmux $end
$var wire 32 %" A [31:0] $end
$var wire 32 &" B [31:0] $end
$var wire 1 : selector $end
$var wire 32 '" result [31:0] $end
$upscope $end
$scope module wrmux $end
$var wire 5 (" A [4:0] $end
$var wire 5 )" B [4:0] $end
$var wire 1 5 selector $end
$var wire 5 *" result [4:0] $end
$upscope $end
$upscope $end
$upscope $end
$upscope $end
$upscope $end
$enddefinitions $end
#0
$dumpvars
b10 *"
b0 )"
b10 ("
b101 '"
b101 &"
bx %"
b101 $"
b101 #"
b0 ""
bx !"
b10 ~
b101 }
b10 |
b0 {
b101 z
bx y
b101 x
b0 w
b1 v
b1 u
b10000000000000010100 t
b1 s
b1 r
b10101 q
b1 p
b10101 o
b10100 n
b1 m
b0 l
b1 k
b1 j
b101 i
b10100 h
b101 g
b0 f
b101 e
b10 d
bx c
b0 b
b101 a
b10 `
b0 _
b101 ^
b101 ]
b101 \
bx [
0Z
xY
b10 X
b101 W
b0 V
b10101 U
b1 T
b1 S
b1 R
b101 Q
b101 P
b10100 O
b0 N
b101 M
bx L
b10 K
bx J
b100000000000100000000000000101 I
b10 H
b101000000 G
b0 F
b1000 E
b10 D
b0 C
b101 B
b10 A
b0 @
0?
b1000 >
b101 =
b10 <
b101 ;
1:
09
08
b0 7
06
05
14
bx 3
02
bx 1
b100000000000100000000000000101 0
b100000000000100000000000000101 /
b0 .
b101 -
bx ,
bx +
b101 *
b100000000000100000000000000101 )
b0 (
bx '
bx &
1%
1$
b101 #
0"
bx !
$end
#5
0$
#10
b101 !
b101 &
b101 ,
b101 3
b101 L
b101 !"
b101 %"
1$
#15
0$
#20
1$
#22
0%
#25
0$
#30
b10 T
b10 u
b10 v
b10 S
b10 r
b10 s
b10110 U
b10110 o
b10110 q
b10 R
b10 k
b10 m
b10 p
b1 (
b1 7
b1 V
b1 l
b1 w
1$
#35
0$
#40
b11 T
b11 u
b11 v
b11 S
b11 r
b11 s
b10111 U
b10111 o
b10111 q
b11 R
b11 k
b11 m
b11 p
b10 (
b10 7
b10 V
b10 l
b10 w
1$
#45
0$
#50
b100 T
b100 u
b100 v
b100 S
b100 r
b100 s
b11000 U
b11000 o
b11000 q
b100 R
b100 k
b100 m
b100 p
b11 (
b11 7
b11 V
b11 l
b11 w
1$
#55
0$
#60
b1100 Q
b1100 z
b1100 }
b1100 #
b1100 *
b1100 -
b1100 ;
b1100 W
b1100 ]
b1100 x
b1100 \
b1100 g
bx !
bx &
bx ,
bx 3
bx L
bx !"
bx %"
b11 K
b11 ~
b11 *"
b1100 M
b1100 ^
b1100 a
b1100 e
b1100 '"
b110000 O
b110000 h
b110000 n
b101 T
b101 u
b101 v
b1100 =
b1100 B
b11000000000000110000 t
b11 |
b11 ("
b1100 P
b1100 i
b1100 $"
b1100 &"
b1100 #"
b101 S
b101 r
b101 s
b100000000000110000000000001100 )
b100000000000110000000000001100 /
b100000000000110000000000001100 0
b100000000000110000000000001100 I
b1 .
b110101 U
b110101 o
b110101 q
b101 R
b101 k
b101 m
b101 p
b100 (
b100 7
b100 V
b100 l
b100 w
1$
#65
0$
#70
b110 T
b110 u
b110 v
b1100 !
b1100 &
b1100 ,
b1100 3
b1100 L
b1100 !"
b1100 %"
b110 S
b110 r
b110 s
b110110 U
b110110 o
b110110 q
b110 R
b110 k
b110 m
b110 p
b101 (
b101 7
b101 V
b101 l
b101 w
1$
#75
0$
#80
b111 T
b111 u
b111 v
b111 S
b111 r
b111 s
b110111 U
b110111 o
b110111 q
b111 R
b111 k
b111 m
b111 p
b110 (
b110 7
b110 V
b110 l
b110 w
1$
#85
0$
#90
b1000 T
b1000 u
b1000 v
b1000 S
b1000 r
b1000 s
b111000 U
b111000 o
b111000 q
b1000 R
b1000 k
b1000 m
b1000 p
b111 (
b111 7
b111 V
b111 l
b111 w
1$
#95
0$
#100
b11 Q
b11 z
b11 }
b11 #
b11 *
b11 -
b11 ;
b11 W
b11 ]
b11 x
b11 \
b11 g
b1100 N
b1100 _
b1100 b
b1100 f
b1100 ""
bx !
bx &
bx ,
bx 3
bx L
bx !"
bx %"
b111 K
b111 ~
b111 *"
b11111111111111111111111111110111 M
b11111111111111111111111111110111 ^
b11111111111111111111111111110111 a
b11111111111111111111111111110111 e
b11111111111111111111111111110111 '"
b11111111111111111111111111011100 O
b11111111111111111111111111011100 h
b11111111111111111111111111011100 n
b1001 T
b1001 u
b1001 v
b110111 =
b110111 B
b1100111111111111111011100 t
b11 {
b111 |
b111 ("
b11111 )"
b11111111111111111111111111110111 P
b11111111111111111111111111110111 i
b11111111111111111111111111110111 $"
b11111111111111111111111111110111 &"
b1111111111110111 #"
b1001 S
b1001 r
b1001 s
b100000011001111111111111110111 )
b100000011001111111111111110111 /
b100000011001111111111111110111 0
b100000011001111111111111110111 I
b10 .
b11111111111111111111111111100101 U
b11111111111111111111111111100101 o
b11111111111111111111111111100101 q
b1001 R
b1001 k
b1001 m
b1001 p
b1000 (
b1000 7
b1000 V
b1000 l
b1000 w
1$
#105
0$
#110
b1010 T
b1010 u
b1010 v
b11 !
b11 &
b11 ,
b11 3
b11 L
b11 !"
b11 %"
b1010 S
b1010 r
b1010 s
b11111111111111111111111111100110 U
b11111111111111111111111111100110 o
b11111111111111111111111111100110 q
b1010 R
b1010 k
b1010 m
b1010 p
b1001 (
b1001 7
b1001 V
b1001 l
b1001 w
1$
#115
0$
#120
b1011 T
b1011 u
b1011 v
b1011 S
b1011 r
b1011 s
b11111111111111111111111111100111 U
b11111111111111111111111111100111 o
b11111111111111111111111111100111 q
b1011 R
b1011 k
b1011 m
b1011 p
b1010 (
b1010 7
b1010 V
b1010 l
b1010 w
1$
#125
0$
#130
b1100 T
b1100 u
b1100 v
b1100 S
b1100 r
b1100 s
b11111111111111111111111111101000 U
b11111111111111111111111111101000 o
b11111111111111111111111111101000 q
b1100 R
b1100 k
b1100 m
b1100 p
b1011 (
b1011 7
b1011 V
b1011 l
b1011 w
1$
#135
0$
#140
0Y
b111 [
b111 c
b1 <
b1 A
b1 D
b1 H
b1 X
b1 `
b1 d
15
0:
b10 @
b10 C
b10 F
b110000010 G
b1000 Q
b1000 z
b1000 }
b1000 #
b1000 *
b1000 -
b1000 ;
b1000 W
b1000 ]
b1000 x
b1000 \
b1000 g
b11 N
b11 _
b11 b
b11 f
b11 ""
b101 !
b101 &
b101 ,
b101 3
b101 L
b101 !"
b101 %"
b100 K
b100 ~
b100 *"
b101 M
b101 ^
b101 a
b101 e
b101 '"
b1000000010010100 O
b1000000010010100 h
b1000000010010100 n
b1101 T
b1101 u
b1101 v
b0 >
b0 E
b100101 =
b100101 B
b11100010001000000010010100 t
b111 {
b10 |
b10 ("
b100 )"
b10000000100101 P
b10000000100101 i
b10000000100101 $"
b10000000100101 &"
b10000000100101 #"
b1101 S
b1101 r
b1101 s
b111000100010000000100101 )
b111000100010000000100101 /
b111000100010000000100101 0
b111000100010000000100101 I
b11 .
b1000000010100001 U
b1000000010100001 o
b1000000010100001 q
b1101 R
b1101 k
b1101 m
b1101 p
b1100 (
b1100 7
b1100 V
b1100 l
b1100 w
1$
#145
0$
#150
b1110 T
b1110 u
b1110 v
b1110 S
b1110 r
b1110 s
b1000000010100010 U
b1000000010100010 o
b1000000010100010 q
b1110 R
b1110 k
b1110 m
b1110 p
b1101 (
b1101 7
b1101 V
b1101 l
b1101 w
1$
#155
0$
#160
b1111 T
b1111 u
b1111 v
b1111 S
b1111 r
b1111 s
b1000000010100011 U
b1000000010100011 o
b1000000010100011 q
b1111 R
b1111 k
b1111 m
b1111 p
b1110 (
b1110 7
b1110 V
b1110 l
b1110 w
1$
#165
0$
#170
b10000 T
b10000 u
b10000 v
b10000 S
b10000 r
b10000 s
b1000000010100100 U
b1000000010100100 o
b1000000010100100 q
b10000 R
b10000 k
b10000 m
b10000 p
b1111 (
b1111 7
b1111 V
b1111 l
b1111 w
1$
#175
0$
#180
b0 <
b0 A
b0 D
b0 H
b0 X
b0 `
b0 d
b1000 [
b1000 c
b1000 M
b1000 ^
b1000 a
b1000 e
b1000 '"
b1100 N
b1100 _
b1100 b
b1100 f
b1100 ""
b1000 !
b1000 &
b1000 ,
b1000 3
b1000 L
b1000 !"
b1000 %"
b101 K
b101 ~
b101 *"
b1010000010010000 O
b1010000010010000 h
b1010000010010000 n
b10001 T
b10001 u
b10001 v
b100100 =
b100100 B
b1100100001010000010010000 t
b11 {
b100 |
b100 ("
b101 )"
b10100000100100 P
b10100000100100 i
b10100000100100 $"
b10100000100100 &"
b10100000100100 #"
b10001 S
b10001 r
b10001 s
b11001000010100000100100 )
b11001000010100000100100 /
b11001000010100000100100 0
b11001000010100000100100 I
b100 .
b1010000010100001 U
b1010000010100001 o
b1010000010100001 q
b10001 R
b10001 k
b10001 m
b10001 p
b10000 (
b10000 7
b10000 V
b10000 l
b10000 w
1$
#185
0$
#190
b10010 T
b10010 u
b10010 v
b10010 S
b10010 r
b10010 s
b1010000010100010 U
b1010000010100010 o
b1010000010100010 q
b10010 R
b10010 k
b10010 m
b10010 p
b10001 (
b10001 7
b10001 V
b10001 l
b10001 w
1$
#195
0$
#200
b10011 T
b10011 u
b10011 v
b10011 S
b10011 r
b10011 s
b1010000010100011 U
b1010000010100011 o
b1010000010100011 q
b10011 R
b10011 k
b10011 m
b10011 p
b10010 (
b10010 7
b10010 V
b10010 l
b10010 w
1$
#205
0$
#210
b10100 T
b10100 u
b10100 v
b10100 S
b10100 r
b10100 s
b1010000010100100 U
b1010000010100100 o
b1010000010100100 q
b10100 R
b10100 k
b10100 m
b10100 p
b10011 (
b10011 7
b10011 V
b10011 l
b10011 w
1$
#215
0$
#220
b10000 Q
b10000 z
b10000 }
b10000 #
b10000 *
b10000 -
b10000 ;
b10000 W
b10000 ]
b10000 x
b10000 \
b10000 g
b10 <
b10 A
b10 D
b10 H
b10 X
b10 `
b10 d
b1000 N
b1000 _
b1000 b
b1000 f
b1000 ""
b1010000010000000 O
b1010000010000000 h
b1010000010000000 n
b10101 T
b10101 u
b10101 v
b100000 =
b100000 B
b10100100001010000010000000 t
b101 {
b10100000100000 P
b10100000100000 i
b10100000100000 $"
b10100000100000 &"
b10100000100000 #"
b10101 S
b10101 r
b10101 s
b101001000010100000100000 )
b101001000010100000100000 /
b101001000010100000100000 0
b101001000010100000100000 I
b101 .
b1010000010010101 U
b1010000010010101 o
b1010000010010101 q
b10101 R
b10101 k
b10101 m
b10101 p
b10100 (
b10100 7
b10100 V
b10100 l
b10100 w
1$
#225
0$
#230
b11000 Q
b11000 z
b11000 }
b11000 #
b11000 *
b11000 -
b11000 ;
b11000 W
b11000 ]
b11000 x
b11000 \
b11000 g
b10110 T
b10110 u
b10110 v
b10000 N
b10000 _
b10000 b
b10000 f
b10000 ""
b10110 S
b10110 r
b10110 s
b1010000010010110 U
b1010000010010110 o
b1010000010010110 q
b10110 R
b10110 k
b10110 m
b10110 p
b10101 (
b10101 7
b10101 V
b10101 l
b10101 w
1$
#235
0$
#240
b100000 Q
b100000 z
b100000 }
b100000 #
b100000 *
b100000 -
b100000 ;
b100000 W
b100000 ]
b100000 x
b100000 \
b100000 g
b10111 T
b10111 u
b10111 v
b11000 N
b11000 _
b11000 b
b11000 f
b11000 ""
b10111 S
b10111 r
b10111 s
b1010000010010111 U
b1010000010010111 o
b1010000010010111 q
b10111 R
b10111 k
b10111 m
b10111 p
b10110 (
b10110 7
b10110 V
b10110 l
b10110 w
1$
#245
0$
#250
b101000 Q
b101000 z
b101000 }
b101000 #
b101000 *
b101000 -
b101000 ;
b101000 W
b101000 ]
b101000 x
b101000 \
b101000 g
b11000 T
b11000 u
b11000 v
b100000 N
b100000 _
b100000 b
b100000 f
b100000 ""
b11000 S
b11000 r
b11000 s
b1010000010011000 U
b1010000010011000 o
b1010000010011000 q
b11000 R
b11000 k
b11000 m
b11000 p
b10111 (
b10111 7
b10111 V
b10111 l
b10111 w
1$
#255
0$
#260
04
05
1?
b1 @
b1 C
b1 F
b100001 G
b110 <
b110 A
b110 D
b110 H
b110 X
b110 `
b110 d
b1000 Q
b1000 z
b1000 }
b11 M
b11 ^
b11 a
b11 e
b11 '"
b1000 #
b1000 *
b1000 -
b1000 ;
b1000 W
b1000 ]
b1000 x
b11 !
b11 &
b11 ,
b11 3
b11 L
b11 !"
b11 %"
b111 K
b111 ~
b111 *"
b101000 O
b101000 h
b101000 n
b100101 \
b100101 g
b11001 T
b11001 u
b11001 v
b100 >
b100 E
b1010 =
b1010 B
b10100111000000000000101000 t
b111 |
b111 ("
b0 )"
b1010 P
b1010 i
b1010 $"
b1010 &"
b1010 #"
b101000 N
b101000 _
b101000 b
b101000 f
b101000 ""
b11001 S
b11001 r
b11001 s
b10000101001110000000000001010 )
b10000101001110000000000001010 /
b10000101001110000000000001010 0
b10000101001110000000000001010 I
b110 .
b1000001 U
b1000001 o
b1000001 q
b11001 R
b11001 k
b11001 m
b11001 p
b11000 (
b11000 7
b11000 V
b11000 l
b11000 w
1$
#265
0$
#270
b11010 T
b11010 u
b11010 v
b11010 S
b11010 r
b11010 s
b1000010 U
b1000010 o
b1000010 q
b11010 R
b11010 k
b11010 m
b11010 p
b11001 (
b11001 7
b11001 V
b11001 l
b11001 w
1$
#275
0$
#280
b11011 T
b11011 u
b11011 v
b11011 S
b11011 r
b11011 s
b1000011 U
b1000011 o
b1000011 q
b11011 R
b11011 k
b11011 m
b11011 p
b11010 (
b11010 7
b11010 V
b11010 l
b11010 w
1$
#285
0$
#290
b11100 T
b11100 u
b11100 v
b11100 S
b11100 r
b11100 s
b1000100 U
b1000100 o
b1000100 q
b11100 R
b11100 k
b11100 m
b11100 p
b11011 (
b11011 7
b11011 V
b11011 l
b11011 w
1$
#295
0$
#300
b111 <
b111 A
b111 D
b111 H
b111 X
b111 `
b111 d
14
15
0?
b10 @
b10 C
b10 F
b110000010 G
b1 \
b1 g
b1000 M
b1000 ^
b1000 a
b1000 e
b1000 '"
b1100 N
b1100 _
b1100 b
b1100 f
b1100 ""
b1000 !
b1000 &
b1000 ,
b1000 3
b1000 L
b1000 !"
b1000 %"
b100 K
b100 ~
b100 *"
b1000000010101000 O
b1000000010101000 h
b1000000010101000 n
b11101 T
b11101 u
b11101 v
b0 >
b0 E
b101010 =
b101010 B
b1100100001000000010101000 t
b11 {
b100 |
b100 ("
b100 )"
b10000000101010 P
b10000000101010 i
b10000000101010 $"
b10000000101010 &"
b10000000101010 #"
b11101 S
b11101 r
b11101 s
b11001000010000000101010 )
b11001000010000000101010 /
b11001000010000000101010 0
b11001000010000000101010 I
b111 .
b1000000011000101 U
b1000000011000101 o
b1000000011000101 q
b11101 R
b11101 k
b11101 m
b11101 p
b11100 (
b11100 7
b11100 V
b11100 l
b11100 w
1$
#305
0$
#310
b11110 T
b11110 u
b11110 v
b11110 S
b11110 r
b11110 s
b1000000011000110 U
b1000000011000110 o
b1000000011000110 q
b11110 R
b11110 k
b11110 m
b11110 p
b11101 (
b11101 7
b11101 V
b11101 l
b11101 w
1$
#315
0$
#320
b11111 T
b11111 u
b11111 v
b11111 S
b11111 r
b11111 s
b1000000011000111 U
b1000000011000111 o
b1000000011000111 q
b11111 R
b11111 k
b11111 m
b11111 p
b11110 (
b11110 7
b11110 V
b11110 l
b11110 w
1$
